12.1 R/Medicine2020 course “Tidymodels, Virtually” | Thoughts
…
As an example, using the alz data, can use test and train datasets to fit a classification tree model. Predict the test data and save the true classification ability by measuring accuracy.

# Train the data
tree_fit <-
    tree_mod %>%
    fit(
        Class ~ tau + VEGF,
        data = alz_train
    )

# Test by predicting
tree_fit %>%
    predict(new_data = alz_test)

## # A tibble: 33 x 1
##    .pred_class
##    <fct>      
##  1 Control    
##  2 Control    
##  3 Control    
##  4 Control    
##  5 Control    
##  6 Impaired   
##  7 Control    
##  8 Impaired   
##  9 Impaired   
## 10 Impaired   
## # … with 23 more rows
…
